AZ8/report/result.txt
VCD info: dumpfile report/waveform.vcd opened for output.
                   0	 [MEM] r_en = x, r_addr1 =  x, r_addr2 =  x, w_addr =  x, w_en = x, data_in = xxxxxxxxxxxxxxxxxxxxxxxxxxxxxxxx, data_out1 = xxxxxxxxxxxxxxxxxxxxxxxxxxxxxxxx, data_out2 = xxxxxxxxxxxxxxxxxxxxxxxxxxxxxxxx
                   0	 [ID] inst = xxxxxxxxxxxxxxxxx, oper1 = xxxxx, oper2 = xxxxx, dest = xxxxx, mem_read = 0, alu_sig = xx
                   0	 [MEM] r_en = x, r_addr1 =  x, r_addr2 =  x, w_addr =  x, w_en = 1, data_in = xxxxxxxxxxxxxxxxxxxxxxxxxxxxxxxx, data_out1 = xxxxxxxxxxxxxxxxxxxxxxxxxxxxxxxx, data_out2 = xxxxxxxxxxxxxxxxxxxxxxxxxxxxxxxx
                   0	 [WB] dst_addr_i =  x, data_i = xxxxxxxxxxxxxxxxxxxxxxxxxxxxxxxx, dst_addr_o =  x, data_o = xxxxxxxxxxxxxxxxxxxxxxxxxxxxxxxx, w_en = 1
                   5	 [ID] inst = xxxxxxxxxxxxxxxxx, oper1 = xxxxx, oper2 = xxxxx, dest = xxxxx, mem_read = 1, alu_sig = xx
                   5	 [MEM] r_en = 1, r_addr1 =  x, r_addr2 =  x, w_addr =  x, w_en = 0, data_in = xxxxxxxxxxxxxxxxxxxxxxxxxxxxxxxx, data_out1 = xxxxxxxxxxxxxxxxxxxxxxxxxxxxxxxx, data_out2 = xxxxxxxxxxxxxxxxxxxxxxxxxxxxxxxx
                   5	 [WB] dst_addr_i =  x, data_i = xxxxxxxxxxxxxxxxxxxxxxxxxxxxxxxx, dst_addr_o =  x, data_o = xxxxxxxxxxxxxxxxxxxxxxxxxxxxxxxx, w_en = 0
                  10	 [MEM] r_en = 1, r_addr1 =  x, r_addr2 =  x, w_addr =  x, w_en = 1, data_in = xxxxxxxxxxxxxxxxxxxxxxxxxxxxxxxx, data_out1 = xxxxxxxxxxxxxxxxxxxxxxxxxxxxxxxx, data_out2 = xxxxxxxxxxxxxxxxxxxxxxxxxxxxxxxx
                  10	 [WB] dst_addr_i =  x, data_i = xxxxxxxxxxxxxxxxxxxxxxxxxxxxxxxx, dst_addr_o =  x, data_o = xxxxxxxxxxxxxxxxxxxxxxxxxxxxxxxx, w_en = 1
                  15	 [ID] inst = xxxxxxxxxxxxxxxxx, oper1 = xxxxx, oper2 = xxxxx, dest = xxxxx, mem_read = 1, alu_sig = xx
                  15	 [IF] inst[ 0]:01000010000100001
                  15	 [MEM] r_en = 1, r_addr1 =  x, r_addr2 =  x, w_addr =  x, w_en = 0, data_in = xxxxxxxxxxxxxxxxxxxxxxxxxxxxxxxx, data_out1 = xxxxxxxxxxxxxxxxxxxxxxxxxxxxxxxx, data_out2 = xxxxxxxxxxxxxxxxxxxxxxxxxxxxxxxx
                  15	 [WB] dst_addr_i =  x, data_i = xxxxxxxxxxxxxxxxxxxxxxxxxxxxxxxx, dst_addr_o =  x, data_o = xxxxxxxxxxxxxxxxxxxxxxxxxxxxxxxx, w_en = 0
                  20	 [MEM] r_en = 1, r_addr1 =  x, r_addr2 =  x, w_addr =  x, w_en = 1, data_in = xxxxxxxxxxxxxxxxxxxxxxxxxxxxxxxx, data_out1 = xxxxxxxxxxxxxxxxxxxxxxxxxxxxxxxx, data_out2 = xxxxxxxxxxxxxxxxxxxxxxxxxxxxxxxx
                  20	 [WB] dst_addr_i =  x, data_i = xxxxxxxxxxxxxxxxxxxxxxxxxxxxxxxx, dst_addr_o =  x, data_o = xxxxxxxxxxxxxxxxxxxxxxxxxxxxxxxx, w_en = 1
                  25	 [IF] inst[ 1]:00000000000000000
                  25	 [ID] inst = xxxxxxxxxxxxxxxxx, oper1 = xxxxx, oper2 = xxxxx, dest = xxxxx, mem_read = 1, alu_sig = xx
                  25	 [MEM] r_en = 1, r_addr1 =  x, r_addr2 =  x, w_addr =  x, w_en = 0, data_in = xxxxxxxxxxxxxxxxxxxxxxxxxxxxxxxx, data_out1 = xxxxxxxxxxxxxxxxxxxxxxxxxxxxxxxx, data_out2 = xxxxxxxxxxxxxxxxxxxxxxxxxxxxxxxx
                  25	 [WB] dst_addr_i =  x, data_i = xxxxxxxxxxxxxxxxxxxxxxxxxxxxxxxx, dst_addr_o =  x, data_o = xxxxxxxxxxxxxxxxxxxxxxxxxxxxxxxx, w_en = 0
                  30	 [MEM] r_en = 1, r_addr1 =  x, r_addr2 =  x, w_addr =  x, w_en = 1, data_in = xxxxxxxxxxxxxxxxxxxxxxxxxxxxxxxx, data_out1 = xxxxxxxxxxxxxxxxxxxxxxxxxxxxxxxx, data_out2 = xxxxxxxxxxxxxxxxxxxxxxxxxxxxxxxx
                  30	 [WB] dst_addr_i =  x, data_i = xxxxxxxxxxxxxxxxxxxxxxxxxxxxxxxx, dst_addr_o =  x, data_o = xxxxxxxxxxxxxxxxxxxxxxxxxxxxxxxx, w_en = 1
                  35	 [ID] inst = 01000010000100001, oper1 = 00001, oper2 = 00001, dest = 00001, mem_read = 1, alu_sig = 01
                  35	 [IF] inst[ 2]:00000000000000000
                  35	 [MEM] r_en = 1, r_addr1 =  1, r_addr2 =  1, w_addr =  x, w_en = 0, data_in = xxxxxxxxxxxxxxxxxxxxxxxxxxxxxxxx, data_out1 = xxxxxxxxxxxxxxxxxxxxxxxxxxxxxxxx, data_out2 = xxxxxxxxxxxxxxxxxxxxxxxxxxxxxxxx
                  35	 [MEM] r_en = 1, r_addr1 =  1, r_addr2 =  1, w_addr =  x, w_en = 0, data_in = xxxxxxxxxxxxxxxxxxxxxxxxxxxxxxxx, data_out1 = 00000000000000100000000000000010, data_out2 = 00000000000000100000000000000010
                  35	 [WB] dst_addr_i =  x, data_i = xxxxxxxxxxxxxxxxxxxxxxxxxxxxxxxx, dst_addr_o =  x, data_o = xxxxxxxxxxxxxxxxxxxxxxxxxxxxxxxx, w_en = 0
                  40	 [MEM] r_en = 1, r_addr1 =  1, r_addr2 =  1, w_addr =  x, w_en = 1, data_in = xxxxxxxxxxxxxxxxxxxxxxxxxxxxxxxx, data_out1 = 00000000000000100000000000000010, data_out2 = 00000000000000100000000000000010
                  40	 [WB] dst_addr_i =  x, data_i = xxxxxxxxxxxxxxxxxxxxxxxxxxxxxxxx, dst_addr_o =  x, data_o = xxxxxxxxxxxxxxxxxxxxxxxxxxxxxxxx, w_en = 1
                  45	 [IF] inst[ 3]:00000000000000000
                  45	 [ID] inst = 00000000000000000, oper1 = 00000, oper2 = 00000, dest = 00000, mem_read = 1, alu_sig = 00
                  45	 [MEM] r_en = 1, r_addr1 =  0, r_addr2 =  0, w_addr =  x, w_en = 0, data_in = xxxxxxxxxxxxxxxxxxxxxxxxxxxxxxxx, data_out1 = 00000000000000100000000000000010, data_out2 = 00000000000000100000000000000010
                  45	 [MEM] r_en = 1, r_addr1 =  0, r_addr2 =  0, w_addr =  1, w_en = 0, data_in = 00000000000001000000000000000100, data_out1 = 00000000000011110000000000001111, data_out2 = 00000000000011110000000000001111
                  45	 [WB] dst_addr_i =  1, data_i = 00000000000001000000000000000100, dst_addr_o =  1, data_o = 00000000000001000000000000000100, w_en = 0
                  50	 [MEM] r_en = 1, r_addr1 =  0, r_addr2 =  0, w_addr =  1, w_en = 1, data_in = 00000000000001000000000000000100, data_out1 = 00000000000011110000000000001111, data_out2 = 00000000000011110000000000001111
                  50	 [MEM] r_en = 1, r_addr1 =  0, r_addr2 =  0, w_addr =  1, w_en = 1, data_in = 00000000000001000000000000000100, data_out1 = 00000000000011110000000000001111, data_out2 = 00000000000011110000000000001111
                  50	 [WB] dst_addr_i =  1, data_i = 00000000000001000000000000000100, dst_addr_o =  1, data_o = 00000000000001000000000000000100, w_en = 1
                  55	 [ID] inst = 00000000000000000, oper1 = 00000, oper2 = 00000, dest = 00000, mem_read = 1, alu_sig = 00
                  55	 [IF] inst[ 4]:00000000000000000
                  55	 [MEM] r_en = 1, r_addr1 =  0, r_addr2 =  0, w_addr =  1, w_en = 0, data_in = 00000000000001000000000000000100, data_out1 = 00000000000011110000000000001111, data_out2 = 00000000000011110000000000001111
                  55	 [MEM] r_en = 1, r_addr1 =  0, r_addr2 =  0, w_addr =  0, w_en = 0, data_in = 00000000000000000000000000000000, data_out1 = 00000000000011110000000000001111, data_out2 = 00000000000011110000000000001111
                  55	 [WB] dst_addr_i =  0, data_i = 00000000000000000000000000000000, dst_addr_o =  0, data_o = 00000000000000000000000000000000, w_en = 0
                  60	 [MEM] r_en = 1, r_addr1 =  0, r_addr2 =  0, w_addr =  0, w_en = 1, data_in = 00000000000000000000000000000000, data_out1 = 00000000000011110000000000001111, data_out2 = 00000000000011110000000000001111
                  60	 [MEM] r_en = 1, r_addr1 =  0, r_addr2 =  0, w_addr =  0, w_en = 1, data_in = 00000000000000000000000000000000, data_out1 = 00000000000011110000000000001111, data_out2 = 00000000000011110000000000001111
                  60	 [MEM] r_en = 1, r_addr1 =  0, r_addr2 =  0, w_addr =  0, w_en = 1, data_in = 00000000000000000000000000000000, data_out1 = 00000000000000000000000000000000, data_out2 = 00000000000000000000000000000000
                  60	 [WB] dst_addr_i =  0, data_i = 00000000000000000000000000000000, dst_addr_o =  0, data_o = 00000000000000000000000000000000, w_en = 1
                  65	 [ID] inst = 00000000000000000, oper1 = 00000, oper2 = 00000, dest = 00000, mem_read = 1, alu_sig = 00
                  65	 [MEM] r_en = 1, r_addr1 =  0, r_addr2 =  0, w_addr =  0, w_en = 0, data_in = 00000000000000000000000000000000, data_out1 = 00000000000000000000000000000000, data_out2 = 00000000000000000000000000000000
                  65	 [WB] dst_addr_i =  0, data_i = 00000000000000000000000000000000, dst_addr_o =  0, data_o = 00000000000000000000000000000000, w_en = 0
                  70	 [MEM] r_en = 1, r_addr1 =  0, r_addr2 =  0, w_addr =  0, w_en = 1, data_in = 00000000000000000000000000000000, data_out1 = 00000000000000000000000000000000, data_out2 = 00000000000000000000000000000000
                  70	 [WB] dst_addr_i =  0, data_i = 00000000000000000000000000000000, dst_addr_o =  0, data_o = 00000000000000000000000000000000, w_en = 1
                  75	 [ID] inst = 00000000000000000, oper1 = 00000, oper2 = 00000, dest = 00000, mem_read = 1, alu_sig = 00
                  75	 [MEM] r_en = 1, r_addr1 =  0, r_addr2 =  0, w_addr =  0, w_en = 0, data_in = 00000000000000000000000000000000, data_out1 = 00000000000000000000000000000000, data_out2 = 00000000000000000000000000000000
                  75	 [WB] dst_addr_i =  0, data_i = 00000000000000000000000000000000, dst_addr_o =  0, data_o = 00000000000000000000000000000000, w_en = 0
                  80	 [MEM] r_en = 1, r_addr1 =  0, r_addr2 =  0, w_addr =  0, w_en = 1, data_in = 00000000000000000000000000000000, data_out1 = 00000000000000000000000000000000, data_out2 = 00000000000000000000000000000000
                  80	 [WB] dst_addr_i =  0, data_i = 00000000000000000000000000000000, dst_addr_o =  0, data_o = 00000000000000000000000000000000, w_en = 1
                  85	 [ID] inst = 00000000000000000, oper1 = 00000, oper2 = 00000, dest = 00000, mem_read = 1, alu_sig = 00
                  85	 [MEM] r_en = 1, r_addr1 =  0, r_addr2 =  0, w_addr =  0, w_en = 0, data_in = 00000000000000000000000000000000, data_out1 = 00000000000000000000000000000000, data_out2 = 00000000000000000000000000000000
                  85	 [WB] dst_addr_i =  0, data_i = 00000000000000000000000000000000, dst_addr_o =  0, data_o = 00000000000000000000000000000000, w_en = 0
                  90	 [MEM] r_en = 1, r_addr1 =  0, r_addr2 =  0, w_addr =  0, w_en = 1, data_in = 00000000000000000000000000000000, data_out1 = 00000000000000000000000000000000, data_out2 = 00000000000000000000000000000000
                  90	 [WB] dst_addr_i =  0, data_i = 00000000000000000000000000000000, dst_addr_o =  0, data_o = 00000000000000000000000000000000, w_en = 1
                  95	 [ID] inst = 00000000000000000, oper1 = 00000, oper2 = 00000, dest = 00000, mem_read = 1, alu_sig = 00
                  95	 [MEM] r_en = 1, r_addr1 =  0, r_addr2 =  0, w_addr =  0, w_en = 0, data_in = 00000000000000000000000000000000, data_out1 = 00000000000000000000000000000000, data_out2 = 00000000000000000000000000000000
                  95	 [WB] dst_addr_i =  0, data_i = 00000000000000000000000000000000, dst_addr_o =  0, data_o = 00000000000000000000000000000000, w_en = 0
                 100	 [MEM] r_en = 1, r_addr1 =  0, r_addr2 =  0, w_addr =  0, w_en = 1, data_in = 00000000000000000000000000000000, data_out1 = 00000000000000000000000000000000, data_out2 = 00000000000000000000000000000000
                 100	 [WB] dst_addr_i =  0, data_i = 00000000000000000000000000000000, dst_addr_o =  0, data_o = 00000000000000000000000000000000, w_en = 1
                 105	 [ID] inst = 00000000000000000, oper1 = 00000, oper2 = 00000, dest = 00000, mem_read = 1, alu_sig = 00
                 105	 [MEM] r_en = 1, r_addr1 =  0, r_addr2 =  0, w_addr =  0, w_en = 0, data_in = 00000000000000000000000000000000, data_out1 = 00000000000000000000000000000000, data_out2 = 00000000000000000000000000000000
                 105	 [WB] dst_addr_i =  0, data_i = 00000000000000000000000000000000, dst_addr_o =  0, data_o = 00000000000000000000000000000000, w_en = 0
WARNING: testbench.v:46: $writememb: Standard inconsistency, following 1364-2005.
                 110	 [MEM] r_en = 1, r_addr1 =  0, r_addr2 =  0, w_addr =  0, w_en = 1, data_in = 00000000000000000000000000000000, data_out1 = 00000000000000000000000000000000, data_out2 = 00000000000000000000000000000000
                 110	 [WB] dst_addr_i =  0, data_i = 00000000000000000000000000000000, dst_addr_o =  0, data_o = 00000000000000000000000000000000, w_en = 1
