AZ6/report/result.txt
VCD info: dumpfile report/waveform.vcd opened for output.
                   0	tempreture: -10, AC_state=1, Fan_state=0, HEAT=0, COOL=0, CRS= 0
                  15	tempreture: -10, AC_state=3, Fan_state=0, HEAT=0, COOL=0, CRS= 0
                  25	tempreture: -10, AC_state=3, Fan_state=0, HEAT=1, COOL=0, CRS= 0
                  30	tempreture:  -9, AC_state=3, Fan_state=0, HEAT=1, COOL=0, CRS= 0
                  40	tempreture:  -8, AC_state=3, Fan_state=0, HEAT=1, COOL=0, CRS= 0
                  50	tempreture:  -7, AC_state=3, Fan_state=0, HEAT=1, COOL=0, CRS= 0
                  60	tempreture:  -6, AC_state=3, Fan_state=0, HEAT=1, COOL=0, CRS= 0
                  70	tempreture:  -5, AC_state=3, Fan_state=0, HEAT=1, COOL=0, CRS= 0
                  80	tempreture:  -4, AC_state=3, Fan_state=0, HEAT=1, COOL=0, CRS= 0
                  90	tempreture:  -3, AC_state=3, Fan_state=0, HEAT=1, COOL=0, CRS= 0
                 100	tempreture:  -2, AC_state=3, Fan_state=0, HEAT=1, COOL=0, CRS= 0
                 110	tempreture:  -1, AC_state=3, Fan_state=0, HEAT=1, COOL=0, CRS= 0
                 120	tempreture:   0, AC_state=3, Fan_state=0, HEAT=1, COOL=0, CRS= 0
                 130	tempreture:   1, AC_state=3, Fan_state=0, HEAT=1, COOL=0, CRS= 0
                 140	tempreture:   2, AC_state=3, Fan_state=0, HEAT=1, COOL=0, CRS= 0
                 150	tempreture:   3, AC_state=3, Fan_state=0, HEAT=1, COOL=0, CRS= 0
                 160	tempreture:   4, AC_state=3, Fan_state=0, HEAT=1, COOL=0, CRS= 0
                 170	tempreture:   5, AC_state=3, Fan_state=0, HEAT=1, COOL=0, CRS= 0
                 180	tempreture:   6, AC_state=3, Fan_state=0, HEAT=1, COOL=0, CRS= 0
                 190	tempreture:   7, AC_state=3, Fan_state=0, HEAT=1, COOL=0, CRS= 0
                 200	tempreture:   8, AC_state=3, Fan_state=0, HEAT=1, COOL=0, CRS= 0
                 210	tempreture:   9, AC_state=3, Fan_state=0, HEAT=1, COOL=0, CRS= 0
                 220	tempreture:  10, AC_state=3, Fan_state=0, HEAT=1, COOL=0, CRS= 0
                 230	tempreture:  11, AC_state=3, Fan_state=0, HEAT=1, COOL=0, CRS= 0
                 240	tempreture:  12, AC_state=3, Fan_state=0, HEAT=1, COOL=0, CRS= 0
                 250	tempreture:  13, AC_state=3, Fan_state=0, HEAT=1, COOL=0, CRS= 0
                 260	tempreture:  14, AC_state=3, Fan_state=0, HEAT=1, COOL=0, CRS= 0
                 270	tempreture:  15, AC_state=3, Fan_state=0, HEAT=1, COOL=0, CRS= 0
                 280	tempreture:  16, AC_state=3, Fan_state=0, HEAT=1, COOL=0, CRS= 0
                 290	tempreture:  17, AC_state=3, Fan_state=0, HEAT=1, COOL=0, CRS= 0
                 300	tempreture:  18, AC_state=3, Fan_state=0, HEAT=1, COOL=0, CRS= 0
                 310	tempreture:  19, AC_state=3, Fan_state=0, HEAT=1, COOL=0, CRS= 0
                 320	tempreture:  20, AC_state=3, Fan_state=0, HEAT=1, COOL=0, CRS= 0
                 330	tempreture:  21, AC_state=3, Fan_state=0, HEAT=1, COOL=0, CRS= 0
                 340	tempreture:  22, AC_state=3, Fan_state=0, HEAT=1, COOL=0, CRS= 0
                 350	tempreture:  23, AC_state=3, Fan_state=0, HEAT=1, COOL=0, CRS= 0
                 360	tempreture:  24, AC_state=3, Fan_state=0, HEAT=1, COOL=0, CRS= 0
                 370	tempreture:  25, AC_state=3, Fan_state=0, HEAT=1, COOL=0, CRS= 0
                 380	tempreture:  26, AC_state=3, Fan_state=0, HEAT=1, COOL=0, CRS= 0
                 390	tempreture:  27, AC_state=3, Fan_state=0, HEAT=1, COOL=0, CRS= 0
                 400	tempreture:  28, AC_state=3, Fan_state=0, HEAT=1, COOL=0, CRS= 0
                 410	tempreture:  29, AC_state=3, Fan_state=0, HEAT=1, COOL=0, CRS= 0
                 420	tempreture:  30, AC_state=3, Fan_state=0, HEAT=1, COOL=0, CRS= 0
                 430	tempreture:  31, AC_state=3, Fan_state=0, HEAT=1, COOL=0, CRS= 0
                 435	tempreture:  31, AC_state=1, Fan_state=0, HEAT=1, COOL=0, CRS= 0
                 440	tempreture:  32, AC_state=1, Fan_state=0, HEAT=1, COOL=0, CRS= 0
                 445	tempreture:  32, AC_state=1, Fan_state=0, HEAT=0, COOL=0, CRS= 0
                 450	tempreture:  33, AC_state=1, Fan_state=0, HEAT=0, COOL=0, CRS= 0
                 460	tempreture:  34, AC_state=1, Fan_state=0, HEAT=0, COOL=0, CRS= 0
                 470	tempreture:  35, AC_state=1, Fan_state=0, HEAT=0, COOL=0, CRS= 0
                 480	tempreture:  36, AC_state=1, Fan_state=0, HEAT=0, COOL=0, CRS= 0
                 485	tempreture:  36, AC_state=2, Fan_state=1, HEAT=0, COOL=0, CRS= 0
                 490	tempreture:  37, AC_state=2, Fan_state=1, HEAT=0, COOL=0, CRS= 0
                 495	tempreture:  37, AC_state=2, Fan_state=1, HEAT=0, COOL=1, CRS= 4
                 500	tempreture:  38, AC_state=2, Fan_state=1, HEAT=0, COOL=1, CRS= 4
                 510	tempreture:  39, AC_state=2, Fan_state=1, HEAT=0, COOL=1, CRS= 4
                 520	tempreture:  40, AC_state=2, Fan_state=1, HEAT=0, COOL=1, CRS= 4
                 530	tempreture:  41, AC_state=2, Fan_state=1, HEAT=0, COOL=1, CRS= 4
                 535	tempreture:  41, AC_state=2, Fan_state=2, HEAT=0, COOL=1, CRS= 4
                 540	tempreture:  42, AC_state=2, Fan_state=2, HEAT=0, COOL=1, CRS= 4
                 545	tempreture:  42, AC_state=2, Fan_state=2, HEAT=0, COOL=1, CRS= 6
                 550	tempreture:  43, AC_state=2, Fan_state=2, HEAT=0, COOL=1, CRS= 6
                 560	tempreture:  44, AC_state=2, Fan_state=2, HEAT=0, COOL=1, CRS= 6
                 570	tempreture:  45, AC_state=2, Fan_state=2, HEAT=0, COOL=1, CRS= 6
                 580	tempreture:  46, AC_state=2, Fan_state=2, HEAT=0, COOL=1, CRS= 6
                 585	tempreture:  46, AC_state=2, Fan_state=3, HEAT=0, COOL=1, CRS= 6
                 590	tempreture:  47, AC_state=2, Fan_state=3, HEAT=0, COOL=1, CRS= 6
                 595	tempreture:  47, AC_state=2, Fan_state=3, HEAT=0, COOL=1, CRS= 8
                 600	tempreture:  48, AC_state=2, Fan_state=3, HEAT=0, COOL=1, CRS= 8
                 610	tempreture:  49, AC_state=2, Fan_state=3, HEAT=0, COOL=1, CRS= 8
                 620	tempreture:  50, AC_state=2, Fan_state=3, HEAT=0, COOL=1, CRS= 8
                 630	tempreture:  51, AC_state=2, Fan_state=3, HEAT=0, COOL=1, CRS= 8
                 640	tempreture:  52, AC_state=2, Fan_state=3, HEAT=0, COOL=1, CRS= 8
                 650	tempreture:  53, AC_state=2, Fan_state=3, HEAT=0, COOL=1, CRS= 8
                 660	tempreture:  54, AC_state=2, Fan_state=3, HEAT=0, COOL=1, CRS= 8
                 670	tempreture:  55, AC_state=2, Fan_state=3, HEAT=0, COOL=1, CRS= 8
                 680	tempreture:  56, AC_state=2, Fan_state=3, HEAT=0, COOL=1, CRS= 8
                 690	tempreture:  57, AC_state=2, Fan_state=3, HEAT=0, COOL=1, CRS= 8
                 700	tempreture:  58, AC_state=2, Fan_state=3, HEAT=0, COOL=1, CRS= 8
                 710	tempreture:  59, AC_state=2, Fan_state=3, HEAT=0, COOL=1, CRS= 8
                 720	tempreture:  60, AC_state=2, Fan_state=3, HEAT=0, COOL=1, CRS= 8
                 740	tempreture:  59, AC_state=2, Fan_state=3, HEAT=0, COOL=1, CRS= 8
                 750	tempreture:  58, AC_state=2, Fan_state=3, HEAT=0, COOL=1, CRS= 8
                 760	tempreture:  57, AC_state=2, Fan_state=3, HEAT=0, COOL=1, CRS= 8
                 770	tempreture:  56, AC_state=2, Fan_state=3, HEAT=0, COOL=1, CRS= 8
                 780	tempreture:  55, AC_state=2, Fan_state=3, HEAT=0, COOL=1, CRS= 8
                 790	tempreture:  54, AC_state=2, Fan_state=3, HEAT=0, COOL=1, CRS= 8
                 800	tempreture:  53, AC_state=2, Fan_state=3, HEAT=0, COOL=1, CRS= 8
                 810	tempreture:  52, AC_state=2, Fan_state=3, HEAT=0, COOL=1, CRS= 8
                 820	tempreture:  51, AC_state=2, Fan_state=3, HEAT=0, COOL=1, CRS= 8
                 830	tempreture:  50, AC_state=2, Fan_state=3, HEAT=0, COOL=1, CRS= 8
                 840	tempreture:  49, AC_state=2, Fan_state=3, HEAT=0, COOL=1, CRS= 8
                 850	tempreture:  48, AC_state=2, Fan_state=3, HEAT=0, COOL=1, CRS= 8
                 860	tempreture:  47, AC_state=2, Fan_state=3, HEAT=0, COOL=1, CRS= 8
                 870	tempreture:  46, AC_state=2, Fan_state=3, HEAT=0, COOL=1, CRS= 8
                 880	tempreture:  45, AC_state=2, Fan_state=3, HEAT=0, COOL=1, CRS= 8
                 890	tempreture:  44, AC_state=2, Fan_state=3, HEAT=0, COOL=1, CRS= 8
                 900	tempreture:  43, AC_state=2, Fan_state=3, HEAT=0, COOL=1, CRS= 8
                 910	tempreture:  42, AC_state=2, Fan_state=3, HEAT=0, COOL=1, CRS= 8
                 920	tempreture:  41, AC_state=2, Fan_state=3, HEAT=0, COOL=1, CRS= 8
                 930	tempreture:  40, AC_state=2, Fan_state=3, HEAT=0, COOL=1, CRS= 8
                 940	tempreture:  39, AC_state=2, Fan_state=3, HEAT=0, COOL=1, CRS= 8
                 945	tempreture:  39, AC_state=2, Fan_state=2, HEAT=0, COOL=1, CRS= 8
                 950	tempreture:  38, AC_state=2, Fan_state=2, HEAT=0, COOL=1, CRS= 8
                 955	tempreture:  38, AC_state=2, Fan_state=2, HEAT=0, COOL=1, CRS= 6
                 960	tempreture:  37, AC_state=2, Fan_state=2, HEAT=0, COOL=1, CRS= 6
                 970	tempreture:  36, AC_state=2, Fan_state=2, HEAT=0, COOL=1, CRS= 6
                 980	tempreture:  35, AC_state=2, Fan_state=2, HEAT=0, COOL=1, CRS= 6
                 990	tempreture:  34, AC_state=2, Fan_state=2, HEAT=0, COOL=1, CRS= 6
                 995	tempreture:  34, AC_state=2, Fan_state=1, HEAT=0, COOL=1, CRS= 6
                1000	tempreture:  33, AC_state=2, Fan_state=1, HEAT=0, COOL=1, CRS= 6
                1005	tempreture:  33, AC_state=2, Fan_state=1, HEAT=0, COOL=1, CRS= 4
                1010	tempreture:  32, AC_state=2, Fan_state=1, HEAT=0, COOL=1, CRS= 4
                1020	tempreture:  31, AC_state=2, Fan_state=1, HEAT=0, COOL=1, CRS= 4
                1030	tempreture:  30, AC_state=2, Fan_state=1, HEAT=0, COOL=1, CRS= 4
                1040	tempreture:  29, AC_state=2, Fan_state=1, HEAT=0, COOL=1, CRS= 4
                1050	tempreture:  28, AC_state=2, Fan_state=1, HEAT=0, COOL=1, CRS= 4
                1060	tempreture:  27, AC_state=2, Fan_state=1, HEAT=0, COOL=1, CRS= 4
                1070	tempreture:  26, AC_state=2, Fan_state=1, HEAT=0, COOL=1, CRS= 4
                1080	tempreture:  25, AC_state=2, Fan_state=1, HEAT=0, COOL=1, CRS= 4
                1090	tempreture:  24, AC_state=2, Fan_state=1, HEAT=0, COOL=1, CRS= 4
                1095	tempreture:  24, AC_state=1, Fan_state=0, HEAT=0, COOL=1, CRS= 4
                1100	tempreture:  23, AC_state=1, Fan_state=0, HEAT=0, COOL=1, CRS= 4
                1105	tempreture:  23, AC_state=1, Fan_state=0, HEAT=0, COOL=0, CRS= 0
                1110	tempreture:  22, AC_state=1, Fan_state=0, HEAT=0, COOL=0, CRS= 0
                1120	tempreture:  21, AC_state=1, Fan_state=0, HEAT=0, COOL=0, CRS= 0
                1130	tempreture:  20, AC_state=1, Fan_state=0, HEAT=0, COOL=0, CRS= 0
                1140	tempreture:  19, AC_state=1, Fan_state=0, HEAT=0, COOL=0, CRS= 0
                1150	tempreture:  18, AC_state=1, Fan_state=0, HEAT=0, COOL=0, CRS= 0
                1160	tempreture:  17, AC_state=1, Fan_state=0, HEAT=0, COOL=0, CRS= 0
                1170	tempreture:  16, AC_state=1, Fan_state=0, HEAT=0, COOL=0, CRS= 0
                1180	tempreture:  15, AC_state=1, Fan_state=0, HEAT=0, COOL=0, CRS= 0
                1190	tempreture:  14, AC_state=1, Fan_state=0, HEAT=0, COOL=0, CRS= 0
                1195	tempreture:  14, AC_state=3, Fan_state=0, HEAT=0, COOL=0, CRS= 0
                1200	tempreture:  13, AC_state=3, Fan_state=0, HEAT=0, COOL=0, CRS= 0
                1205	tempreture:  13, AC_state=3, Fan_state=0, HEAT=1, COOL=0, CRS= 0
                1210	tempreture:  12, AC_state=3, Fan_state=0, HEAT=1, COOL=0, CRS= 0
                1220	tempreture:  11, AC_state=3, Fan_state=0, HEAT=1, COOL=0, CRS= 0
                1230	tempreture:  10, AC_state=3, Fan_state=0, HEAT=1, COOL=0, CRS= 0
                1240	tempreture:   9, AC_state=3, Fan_state=0, HEAT=1, COOL=0, CRS= 0
                1250	tempreture:   8, AC_state=3, Fan_state=0, HEAT=1, COOL=0, CRS= 0
                1260	tempreture:   7, AC_state=3, Fan_state=0, HEAT=1, COOL=0, CRS= 0
                1270	tempreture:   6, AC_state=3, Fan_state=0, HEAT=1, COOL=0, CRS= 0
                1280	tempreture:   5, AC_state=3, Fan_state=0, HEAT=1, COOL=0, CRS= 0
                1290	tempreture:   4, AC_state=3, Fan_state=0, HEAT=1, COOL=0, CRS= 0
                1300	tempreture:   3, AC_state=3, Fan_state=0, HEAT=1, COOL=0, CRS= 0
                1310	tempreture:   2, AC_state=3, Fan_state=0, HEAT=1, COOL=0, CRS= 0
                1320	tempreture:   1, AC_state=3, Fan_state=0, HEAT=1, COOL=0, CRS= 0
                1330	tempreture:   0, AC_state=3, Fan_state=0, HEAT=1, COOL=0, CRS= 0
                1340	tempreture:  -1, AC_state=3, Fan_state=0, HEAT=1, COOL=0, CRS= 0
                1350	tempreture:  -2, AC_state=3, Fan_state=0, HEAT=1, COOL=0, CRS= 0
                1360	tempreture:  -3, AC_state=3, Fan_state=0, HEAT=1, COOL=0, CRS= 0
                1370	tempreture:  -4, AC_state=3, Fan_state=0, HEAT=1, COOL=0, CRS= 0
                1380	tempreture:  -5, AC_state=3, Fan_state=0, HEAT=1, COOL=0, CRS= 0
                1390	tempreture:  -6, AC_state=3, Fan_state=0, HEAT=1, COOL=0, CRS= 0
                1400	tempreture:  -7, AC_state=3, Fan_state=0, HEAT=1, COOL=0, CRS= 0
                1410	tempreture:  -8, AC_state=3, Fan_state=0, HEAT=1, COOL=0, CRS= 0
                1420	tempreture:  -9, AC_state=3, Fan_state=0, HEAT=1, COOL=0, CRS= 0
                1430	tempreture: -10, AC_state=3, Fan_state=0, HEAT=1, COOL=0, CRS= 0
